Host,Timestamps,Branch misses,# Branches,Cache misses,Cache references,Cycles,Instructions,Context switches,CPU migrations,L1D_REPLACEMENT,L2_ICACHE_MISSES,L2_TRANS_L1D_WB,derv_total_L2_BW,L2_RQSTS_MISS,L2_TRANS_ALL,derv_total_L2_cache_miss_rate,L2_LINES_IN_ALL,L2_TRANS_L2_WB,derv_total_L3_BW,MEM_LOAD_UOPS_RETIRED_L3_ALL,MEM_LOAD_UOPS_RETIRED_L3_MISS,derv_total_L3_cache_miss_rate,AVX_INSTS_CALC_SP,derv_total_SP_FLOPS,AVX_INSTS_CALC_DP,derv_total_DP_FLOPS
test-0.host.name,1631394258,1712919,2566299327,20684285,334639783,31610052971,71597118730,0,0,2896229059,3188,2158322,37099.39928319999,336502244,3259450829,0.0206477877197024,336888039,659254,4320.605350399999,333709414,19107078,0.011451326931999586,0,0.0,0,0.0
test-0.host.name,1631394263,1742660,2615506086,17416520,341085728,31846712253,73082307662,0,0,2943460599,4785,2150363,37703.8815616,340280685,3301041984,0.020616562082477287,339929540,678135,4359.77824,336643758,18108952,0.010758525337041896,0,0.0,0,0.0
test-0.host.name,1631394268,1741750,2613598733,17550317,340862450,31858890036,73100526212,0,0,2940168282,4844,2129293,37661.470963199994,341504936,3307593912,0.020649749944273085,341578444,664090,4380.704435199999,338133504,17155467,0.010147155958848728,0,0.0,0,0.0
test-0.host.name,1631394273,1719755,2580445683,19629620,337293962,31732081631,72268214250,0,0,2898619729,5502,2325826,37132.1735296,337497961,3265795451,0.02066865277166436,336823427,728796,4320.6684544,331958733,21330772,0.012851460063862818,0,0.0,0,0.0
test-0.host.name,1631394278,1740786,2612337440,17619755,340732795,31861904703,73083645356,0,0,2938359510,3099,2110050,37638.0500352,341117171,3303185724,0.02065382933339415,341374329,662447,4378.0707328,337968478,17029243,0.010077414971226991,150,0.00023999999999999998,150,0.00011999999999999999
test-0.host.name,1631394283,1744851,2620330239,17093834,341786701,31869182987,73270284413,0,0,2946212155,3535,2116584,37738.6531072,341706226,3309312478,0.020651191343919986,341643967,665913,4381.5664639999995,337896101,17710085,0.010482562508171705,0,0.0,0,0.0
test-0.host.name,1631394288,1712088,2569135726,20239304,335440636,31684309581,72007277048,0,0,2895098920,3246,2116522,37084.3992064,337263789,3268330422,0.0206382920606673,337036056,840236,4324.8165376,331625049,18310360,0.011042808771661878,150,0.00023999999999999998,0,0.0
test-0.host.name,1631394293,1744840,2618608737,17122097,341753526,31866885111,73236096678,0,0,2946309783,2271,2115528,37739.8730496,341931436,3312318615,0.020646047421377066,341708454,667776,4382.415744,337618349,17531324,0.010385290996135995,0,0.0,0,0.0
test-0.host.name,1631394298,1742533,2617085469,17207963,341484100,31865789135,73271540429,0,0,2942339447,2380,2115901,37689.0589184,342116438,3310901071,0.020666062238861742,342229494,667220,4389.0779391999995,338633484,16685774,0.009854769116689003,0,0.0,0,0.0
test-0.host.name,1631394303,1095654,1641709604,16148772,213651392,20751011101,45858481951,0,0,1850299615,5197,1636816,23704.8528384,213978574,2081974115,0.02055535392667454,213352418,527179,2737.6588416,211417261,17135703,0.016210315959017178,0,0.0,0,0.0
test-1.host.name,1631394259,1865666,2796910746,5818168,370134917,31613798965,78432479604,0,0,3153777218,3299,2420366,40399.3713024,370566626,3537259364,0.02095218856561065,370803036,715294,4755.4346239999995,368118945,4019590,0.0021838539171082326,0,0.0,0,0.0
test-1.host.name,1631394264,1907510,2863843787,1466617,378359487,31882663129,80182432472,0,0,3217728762,2773,2383670,41217.474624,377632793,3602383241,0.020965720065651394,377509680,716155,4841.290687999999,374144026,1582257,0.0008458010231599956,0,0.0,152,0.00012159999999999999
test-1.host.name,1631394269,1905142,2857481453,2489269,376660732,31831968896,79763931610,0,0,3218430587,3402,2279061,41225.12704,377730562,3603840818,0.02096266628167149,377762940,668700,4843.924991999999,374124563,1944904,0.0010397093333858434,0,0.0,0,0.0
test-1.host.name,1631394274,1881860,2824475927,4723055,373084120,31702839412,78942380221,0,0,3174837650,4050,2377813,40668.4097664,373606089,3560547905,0.02098587627344393,373972684,776738,4796.7926016,370267012,3544580,0.0019146075049213402,0,0.0,0,0.0
test-1.host.name,1631394279,1906469,2858690456,2235306,377319755,31892382326,80031467350,0,0,3222737563,3099,2280922,41280.2762752,378777064,3613533428,0.020964359209464604,378584980,669711,4854.4600448,374661185,1464801,0.0007819336822948447,0,0.0,0,0.0
test-1.host.name,1631394284,1911128,2867787087,1413619,378651054,31904205172,80267685329,0,0,3226810950,2632,2281520,41332.4173056,377960743,3605983496,0.020962976864384406,377923281,673329,4846.036608,374617860,1732714,0.0009250568032180848,0,0.0,0,0.0
test-1.host.name,1631394289,1880577,2821128951,4895619,372623857,31742414491,78977016332,0,0,3177234090,4340,2458184,40700.1166592,374263462,3567725898,0.020980505380741556,374478143,771992,4803.201728,370459586,2975934,0.0016066173544770953,0,0.0,0,0.0
test-1.host.name,1631394294,1903968,2857970559,1695225,377415558,31863987101,80041875834,0,0,3215298199,3006,2286179,41185.118515199996,376365868,3593414031,0.020947537063813505,376187146,674564,4823.829887999999,373074432,1405724,0.0007535890317994238,0,0.0,0,0.0
test-1.host.name,1631394299,1593091,2388732788,668593,315831601,26478126490,66750124446,0,0,2691579727,3352,1920537,34476.8462848,315034029,3004046289,0.02097397967225531,314425049,571978,4031.9619456,312459974,597374,0.0003823683349599203,0,0.0,0,0.0
test-1.host.name,1631394304,73802,104754526,56759,13989541,1160954642,2913252214,0,0,119766610,203,85339,1534.1075455999999,14190452,134167920,0.02115327121416207,14094628,26070,180.74493439999998,13843073,142674,0.002061305318551741,0,0.0,0,0.0
